{
  "project_info": {
    "project_number": "305081832446",
    "project_id": "topup-da6ea",
    "storage_bucket": "topup-da6ea.appspot.com"
  },
  "client": [
    {
      "client_info": {
        "mobilesdk_app_id": "1:305081832446:android:7d39fc5bbc5e1e54a7e6af",
        "android_client_info": {
          "package_name": "com.hg.topup"
        }
      },
      "oauth_client": [],
      "api_key": [
        {
          "current_key": "AIzaSyD1wFOvEog6Cmn0D-OMclgroeyV-jvqy4s"
        }
      ],
      "services": {
        "appinvite_service": {
          "other_platform_oauth_client": []
        }
      }
    }
  ],
  "configuration_version": "1"
}